2-Data Wrangling
…
Everything is reproducible

You’ll have to train to fix the content

Tibbles <- click on the title

library(tidyverse)
library(palmerpenguins)

data("penguins")
penguins %>% 
  select(1:5)

# A tibble: 344 × 5
   species island    bill_length_mm bill_depth_mm flipper_length_mm
   <fct>   <fct>              <dbl>         <dbl>             <int>
 1 Adelie  Torgersen           39.1          18.7               181
 2 Adelie  Torgersen           39.5          17.4               186
 3 Adelie  Torgersen           40.3          18                 195
 4 Adelie  Torgersen           NA            NA                  NA
 5 Adelie  Torgersen           36.7          19.3               193
 6 Adelie  Torgersen           39.3          20.6               190
 7 Adelie  Torgersen           38.9          17.8               181
 8 Adelie  Torgersen           39.2          19.6               195
 9 Adelie  Torgersen           34.1          18.1               193
10 Adelie  Torgersen           42            20.2               190
# ℹ 334 more rows
…
more about the package magrittr

“Take what is on the left and use it as the first argument on what comes next

penguins %>% # take the opbject penguins
  select(1:3) # then, select the columns 1 to 3

# A tibble: 344 × 3
   species island    bill_length_mm
   <fct>   <fct>              <dbl>
 1 Adelie  Torgersen           39.1
 2 Adelie  Torgersen           39.5
 3 Adelie  Torgersen           40.3
 4 Adelie  Torgersen           NA  
 5 Adelie  Torgersen           36.7
 6 Adelie  Torgersen           39.3
 7 Adelie  Torgersen           38.9
 8 Adelie  Torgersen           39.2
 9 Adelie  Torgersen           34.1
10 Adelie  Torgersen           42  
# ℹ 334 more rows
…
Data exploration goes as far and deep as you need

There is no minimum nor maximum

The key point is

This needs to make your data make sense to you

Subset data

penguins %>% 
  select(body_mass_g)

# A tibble: 344 × 1
   body_mass_g
         <int>
 1        3750
 2        3800
 3        3250
 4          NA
 5        3450
 6        3650
 7        3625
 8        4675
 9        3475
10        4250
# ℹ 334 more rows

Subset data

penguins %>% 
  filter(species=="Gentoo", 
         bill_length_mm > 50, 
         sex=="male") %>% 
  select(bill_length_mm, 
         bill_depth_mm) %>% 
  arrange(bill_depth_mm)

# A tibble: 21 × 2
   bill_length_mm bill_depth_mm
            <dbl>         <dbl>
 1           51.3          14.2
 2           50.2          14.3
 3           50.1          15  
 4           50.7          15  
 5           50.4          15.3
 6           52.5          15.6
 7           54.3          15.7
 8           50.8          15.7
 9           50.4          15.7
10           53.4          15.8
# ℹ 11 more rows

Add new columns

penguins %>% 
  select(bill_length_mm, 
         bill_depth_mm) %>% 
  mutate(bill_volume=bill_length_mm+bill_depth_mm) %>% 
  mutate(log_bill_volume=log(bill_volume)) %>% 
  mutate(bill_categ=ifelse(bill_volume<60, "small", "big"))

# A tibble: 344 × 5
   bill_length_mm bill_depth_mm bill_volume log_bill_volume bill_categ
            <dbl>         <dbl>       <dbl>           <dbl> <chr>     
 1           39.1          18.7        57.8            4.06 small     
 2           39.5          17.4        56.9            4.04 small     
 3           40.3          18          58.3            4.07 small     
 4           NA            NA          NA             NA    <NA>      
 5           36.7          19.3        56              4.03 small     
 6           39.3          20.6        59.9            4.09 small     
 7           38.9          17.8        56.7            4.04 small     
 8           39.2          19.6        58.8            4.07 small     
 9           34.1          18.1        52.2            3.96 small     
10           42            20.2        62.2            4.13 big       
# ℹ 334 more rows

Reshape data Tidyr

Long format

penguins %>% 
  select(bill_length_mm, 
         bill_depth_mm,
         year) %>% 
  pivot_longer(col=c(bill_length_mm:bill_depth_mm), 
               names_to = "bill_feature", values_to = "value")

# A tibble: 688 × 3
    year bill_feature   value
   <int> <chr>          <dbl>
 1  2007 bill_length_mm  39.1
 2  2007 bill_depth_mm   18.7
 3  2007 bill_length_mm  39.5
 4  2007 bill_depth_mm   17.4
 5  2007 bill_length_mm  40.3
 6  2007 bill_depth_mm   18  
 7  2007 bill_length_mm  NA  
 8  2007 bill_depth_mm   NA  
 9  2007 bill_length_mm  36.7
10  2007 bill_depth_mm   19.3
# ℹ 678 more rows
…
Reshape data Tidyr

Wide format

penguins %>% 
  mutate(row = row_number()) %>% # needed to add a rwoo number to identify each row as separate case
  select(row, species, island, body_mass_g) %>% 
  pivot_wider(names_from = island, values_from = body_mass_g)

# A tibble: 344 × 5
     row species Torgersen Biscoe Dream
   <int> <fct>       <int>  <int> <int>
 1     1 Adelie       3750     NA    NA
 2     2 Adelie       3800     NA    NA
 3     3 Adelie       3250     NA    NA
 4     4 Adelie         NA     NA    NA
 5     5 Adelie       3450     NA    NA
 6     6 Adelie       3650     NA    NA
 7     7 Adelie       3625     NA    NA
 8     8 Adelie       4675     NA    NA
 9     9 Adelie       3475     NA    NA
10    10 Adelie       4250     NA    NA
# ℹ 334 more rows
…
