6-Frequency Tests
…
Goodness of fit

Data
Graph
Test

pop %>% 
  spread(country, pop, fill=0) %>% 
  mutate(world=(BRA+UK)/2) %>% 
  pivot_longer(cols = BRA:world, names_to = "place")->pop2
pop2  

# A tibble: 21 × 3
   age   place value
   <chr> <chr> <dbl>
 1 0-10  BRA     120
 2 0-10  UK       50
 3 0-10  world    85
 4 11-20 BRA     140
 5 11-20 UK       70
 6 11-20 world   105
 7 21-30 BRA     150
 8 21-30 UK      110
 9 21-30 world   130
10 31-40 BRA     180
# ℹ 11 more rows
…
